…
Due to the event type imbalance in the dataset we'll use the average as our initial summary statistic. Lets look at the highest average loss of life first.




```r
events_summary <- storm_data %>%
  group_by(evtype) %>%
  summarise(count = n(), avg_fatalities = mean(fatalities), avg_injuries = mean(injuries), avg_propdmg = mean(propdmg), avg_cropdmg = mean(cropdmg))
events_summary[order(-events_summary$avg_fatalities),]
```

```
## # A tibble: 620 x 6
##    evtype              count avg_fatalities avg_injuries avg_propdmg avg_cropdmg
##    <chr>               <int>          <dbl>        <dbl>       <dbl>       <dbl>
##  1 cold and snow           1          14            0             0           0 
##  2 record/excessive h~     3           5.67         0             0           0 
##  3 extreme heat           22           4.36         7.05       5227.     227273.
##  4 heat wave drought       1           4           15        200000       50000 
##  5 high wind/seas          1           4            0        500000           0 
##  6 marine mishap           2           3.5          2.5           0           0 
##  7 winter storms           3           3.33         5.67     166667.     166667.
##  8 heavy surf and wind     1           3            0             0           0 
##  9 rough seas              3           2.67         1.67          0           0 
## 10 heat waves              2           2.5          0             0           0 
## # ... with 610 more rows
```
…
```
## [1] 0.5
```
Half of the most deadly events have less than 3 occurrences. Looking at the data it's obvious many of these occur multiple times in the data but under different names, these are the high outliers. I looked at using word distances and clustering to condense them but due to similarity (eg "major flood", "minor flood") the category names are not a good candidate. An easy way to make the data more representative would be to only look at categories with larger numbers of occurrences. This makes the assumption that the observations of the same type are randomly distributed into different categories which might not be the case. We should bare this in mind if we're to carry out further statistical analysis. To make sure we still catch rare events lets look at those that occur at least 5 times in the dataset, lets also drop observations that are 0 in every column as they are of no interest to us.


```r
events_5 <- events_summary %>%
  filter(count >= 5, avg_fatalities > 0 | avg_injuries > 0 | avg_propdmg > 0 | avg_cropdmg > 0)
events_5[order(events_5$evtype),]
```

```
## # A tibble: 156 x 6
##    evtype              count avg_fatalities avg_injuries avg_propdmg avg_cropdmg
##    <chr>               <int>          <dbl>        <dbl>       <dbl>       <dbl>
##  1 agricultural freeze     6        0            0                0     4803333.
##  2 astronomical high ~   103        0            0            91505.          0 
##  3 astronomical low t~   174        0            0             1839.          0 
##  4 avalanche             387        0.581        0.439         9617.          0 
##  5 beach erosion           5        0            0            20000           0 
##  6 black ice              17        0.0588       1.41             0           0 
##  7 blizzard             2744        0.0368       0.294       242316.      40838.
##  8 blowing snow           17        0.118        0.824          882.          0 
##  9 coastal flood         657        0.00457      0.00304     395085.          0 
## 10 coastal flooding      183        0.0164       0           726587.        306.
## # ... with 146 more rows
```
…
In the last step we realized that there's a large event frequency imbalance in this dataset. This might reflect reality as some weather events are more common than others. However It could also indicate problems with the collection or labeling of the underlying data, so we should check for any inconsistencies. lets look at the number of occurrences for each event.


```r
event_frequency <- events_5[order(-events_5$count),]
event_frequency
```

```
## # A tibble: 156 x 6
##    evtype             count avg_fatalities avg_injuries avg_propdmg avg_cropdmg
##    <chr>              <int>          <dbl>        <dbl>       <dbl>       <dbl>
##  1 thunderstorm wind 335387       0.00216       0.0280       28988.       3544.
##  2 hail              290365       0.000155      0.00504      60682.      10639.
##  3 tornado            60628       0.0929        1.51        939120.       6019.
##  4 flash flood        55644       0.0186        0.0324      303824.      27525.
##  5 flood              25325       0.0186        0.268      1171084.     222289.
##  6 high wind          20212       0.0122        0.0563      260738.      31594.
##  7 lightning          15733       0.0519        0.332        59026.        769.
##  8 heavy snow         15705       0.00796       0.0647       59382.       8574.
##  9 heavy rain         11742       0.00835       0.0214       59125.      62460.
## 10 winter storm       11432       0.0180        0.116       585068.       2357.
## # ... with 146 more rows
```
…
### Damage to human life

First I will look at events that cause the greatest loss of life and injury.


```r
pop_dmg <- events %>%
  group_by(evtype) %>%
  summarise(count = n(), fatalities = sum(fatalities), injuries = sum(injuries))
pop_dmg[order(-pop_dmg$fatalities),]
```

```
## # A tibble: 156 x 4
##    evtype             count fatalities injuries
##    <chr>              <int>      <dbl>    <dbl>
##  1 excessive heat      1678       1903     6525
##  2 tornado            25864       1618    23285
##  3 flash flood        55644       1035     1802
##  4 heat                 767        937     2100
##  5 lightning          15733        816     5230
##  6 rip current          777        577      529
##  7 flood              25325        470     6789
##  8 thunderstorm wind 244424        461     6081
##  9 high wind          20212        246     1137
## 10 avalanche            387        225      170
## # ... with 146 more rows
```

```r
pop_dmg[order(-pop_dmg$injuries),]
```

```
## # A tibble: 156 x 4
##    evtype             count fatalities injuries
##    <chr>              <int>      <dbl>    <dbl>
##  1 tornado            25864       1618    23285
##  2 flood              25325        470     6789
##  3 excessive heat      1678       1903     6525
##  4 thunderstorm wind 244424        461     6081
##  5 lightning          15733        816     5230
##  6 heat                 767        937     2100
##  7 ice storm           2005         89     1975
##  8 flash flood        55644       1035     1802
##  9 wildfires           4232         90     1606
## 10 hurricane            288        135     1328
## # ... with 146 more rows
```
…
Whilst one could rightly argue that the loss of human life in itself is a form of economic damage I will only be regarding damage to property and crops in this part of the analysis.

As both property and crop damage are measured in dollar amounts I will simply combine them to address total economic damage. We'll also keep the separated data as knowing the prevalent type of damage will provide insights for making recommendations.


```r
economic_dmg <- events %>%
  group_by(evtype) %>%
  summarise(count = n(), damage = sum(propdmg + cropdmg), propdmg = sum(propdmg), cropdmg = sum(cropdmg))
economic_dmg[order(-economic_dmg$damage),]
```

```
## # A tibble: 156 x 5
##    evtype             count      damage     propdmg     cropdmg
##    <chr>              <int>       <dbl>       <dbl>       <dbl>
##  1 hurricane            288 90271472810 84756180010  5515292800
##  2 storm surge          409 47965579000 47964724000      855000
##  3 flood              25325 35287178257 29657709807  5629468450
##  4 tornado            25864 26703737023 26338786913   364950110
##  5 hail              228533 20709198654 17619985801  3089212853
##  6 flash flood        55644 18437614977 16906007827  1531607150
##  7 drought             2487 15018672000  1046106000 13972566000
##  8 thunderstorm wind 244424 10910895341  9722214183  1188681158
##  9 river flood          173 10148404500  5118945500  5029459000
## 10 ice storm           2005  8967037810  3944927810  5022110000
## # ... with 146 more rows
```
…
